{
  "version": "2.3",
  "vulnerabilities": [
    {
      "category": "",
      "cve": "debian:10:nghttp2:CVE-2014-9513",
      "severity": "High",
      "scanner": {
        "id": "",
        "name": ""
      },
      "location": {
        "dependency": {
          "package": {}
        }
      },
      "identifiers": [
        {
          "type": "",
          "name": "",
          "value": "CVE-2014-9513"
        }
      ]
    },
    {
      "category": "",
      "cve": "debian:10:nghttp2:CVE-2014-9513",
      "severity": "Low",
      "scanner": {
        "id": "",
        "name": ""
      },
      "location": {
        "dependency": {
          "package": {}
        }
      },
      "identifiers": [
        {
          "type": "",
          "name": "",
          "value": "CVE-2014-9513"
        }
      ]
    },
    {
      "category": "",
      "cve": "unknown-os:10:some-package:UNKNOWN-2020-1234",
      "severity": "High",
      "scanner": {
        "id": "",
        "name": ""
      },
      "location": {
        "dependency": {
          "package": {}
        }
      },
      "identifiers": []
    }
  ],
  "remediations": null
}
